v 20220529 2
C 40000 40000 0 0 0 title-B.sym
C 43400 43600 1 0 0 connector6-1.sym
{
T 45200 45400 5 10 0 0 0 0 1
device=CONNECTOR_6
T 43400 45600 5 10 1 1 0 0 1
refdes=RJ12-P1port
T 44000 45100 5 10 1 1 0 0 1
pinlabel=4.9—5.5V
T 44400 43600 5 10 1 1 0 0 1
pinlabel=GND
T 44300 44500 5 10 1 1 0 0 1
pinlabel=DGND
T 44300 44800 5 10 1 1 0 0 1
pinlabel=DREQ
T 44300 43900 5 10 1 1 0 0 1
pinlabel=/DATA
T 44500 44200 5 10 1 1 0 0 1
pinlabel=N/C
}
C 54000 44200 1 0 1 connector4-1.sym
{
T 52200 45100 5 10 0 0 0 6 1
device=CONNECTOR_4
T 54000 45600 5 10 1 1 0 6 1
refdes=RS232-RS485
T 52600 45100 5 10 1 1 0 0 1
pinlabel=Vcc,3v3
T 52600 44800 5 10 1 1 0 0 1
pinlabel=TxD
T 52600 44500 5 10 1 1 0 0 1
pinlabel=RxD
T 52600 44200 5 10 1 1 0 0 1
pinlabel=GND
}
C 47100 44300 1 0 0 resistor-2.sym
{
T 47500 44650 5 10 0 0 0 0 1
device=RESISTOR
T 47300 44600 5 10 1 1 0 0 1
refdes=R1
T 47600 44600 5 10 1 1 0 0 1
value=68k
T 47300 45000 5 10 0 0 0 0 1
symversion=0.1
}
N 45100 44100 48900 44100 4
N 45100 43800 45500 43800 4
N 45500 42600 52300 42600 4
N 47300 48900 47300 45300 4
N 47700 48900 47700 45300 4
N 47700 45300 52300 45300 4
N 48100 44400 48100 48900 4
N 48100 45000 45100 45000 4
N 48900 48900 48900 44100 4
N 45100 44700 45500 44700 4
N 45500 44700 45500 42600 4
N 51300 48900 51300 42600 4
N 52300 44400 51300 44400 4
N 52300 44700 49700 44700 4
N 49700 44700 49700 48900 4
N 52300 45000 50100 45000 4
N 50100 45000 50100 48900 4
N 45100 45300 47300 45300 4
N 49300 48900 49300 43200 4
N 49300 43200 52300 43200 4
C 54000 42400 1 0 1 connector3-1.sym
{
T 52200 43300 5 10 0 0 0 6 1
device=CONNECTOR_3
T 54000 43500 5 10 1 1 0 6 1
refdes=ARPA2-Console-StereoJack
T 52600 43000 5 10 1 1 0 0 1
pinlabel=T=TxD
T 52600 42700 5 10 1 1 0 0 1
pinlabel=R=RxD
T 52600 42400 5 10 1 1 0 0 1
pinlabel=S=GND
}
N 48000 42900 52300 42900 4
N 48500 42900 48500 48900 4
C 47100 42800 1 0 0 resistor-2.sym
{
T 47500 43150 5 10 0 0 0 0 1
device=RESISTOR
T 47300 43100 5 10 1 1 0 0 1
refdes=R2
T 47600 43100 5 10 1 1 0 0 1
value=68k
T 47300 43500 5 10 0 0 0 0 1
symversion=0.1
}
N 47100 42900 46900 42900 4
N 46900 42900 46900 42600 4
N 48000 44400 48100 44400 4
N 47100 44400 46900 44400 4
N 46900 44400 46900 44100 4
C 46000 43900 1 270 0 capacitor-4.sym
{
T 47100 43700 5 10 0 0 270 0 1
device=POLARIZED_CAPACITOR
T 46000 43800 5 10 1 1 180 0 1
refdes=C1
T 46700 43700 5 10 0 0 270 0 1
symversion=0.2
T 46100 43300 5 10 1 1 180 0 1
value=10uF
}
N 46200 43000 46200 42600 4
N 46200 43900 46200 45300 4
C 51700 48900 1 90 0 connector11-2.sym
{
T 48800 49900 5 10 1 1 180 6 1
refdes=ESP32-WROOM
T 46850 49200 5 10 0 0 90 0 1
device=CONNECTOR_11
T 46650 49200 5 10 0 0 90 0 1
footprint=SIP11N
T 47500 48200 5 10 1 1 90 0 1
pinlabel=Vin,5-12
T 47900 48200 5 10 1 1 90 0 1
pinlabel=Vcc,3v3
T 48300 48200 5 10 1 1 90 0 1
pinlabel=GPO,DREQ
T 48700 48200 5 10 1 1 90 0 1
pinlabel=GPI,CONS
T 49100 48200 5 10 1 1 90 0 1
pinlabel=/RX2
T 49500 48200 5 10 1 1 90 0 1
pinlabel=TX2
T 49900 48200 5 10 1 1 90 0 1
pinlabel=RX0
T 50300 48200 5 10 1 1 90 0 1
pinlabel=TX0
T 50700 48200 5 10 1 1 90 0 1
pinlabel=SCK
T 51100 48200 5 10 1 1 90 0 1
pinlabel=SDA
T 51500 48200 5 10 1 1 90 0 1
pinlabel=GND
}
C 43400 46700 1 0 0 connector4-1.sym
{
T 45200 47600 5 10 0 0 0 0 1
device=CONNECTOR_4
T 43400 48100 5 10 1 1 0 0 1
refdes=GY39-Sensors
T 44800 47600 5 10 1 1 0 6 1
pinlabel=~5v=RD
T 44800 46700 5 10 1 1 0 6 1
pinlabel=GND=ZW
T 44800 47300 5 10 1 1 0 6 1
pinlabel=SCK=GL
T 44800 47000 5 10 1 1 0 6 1
pinlabel=SDA=GN
}
N 45100 47800 47300 47800 4
N 45100 47500 50500 47500 4
N 50500 46600 50500 48900 4
N 45100 47200 50900 47200 4
N 50900 46600 50900 48900 4
N 45100 46900 51300 46900 4
T 50600 40900 9 10 1 0 0 0 1
Connect P1-port and GY-39 sensors to Modbus via ESP32
C 51000 45700 1 90 0 resistor-2.sym
{
T 50650 46100 5 10 0 0 90 0 1
device=RESISTOR
T 51200 45900 5 10 1 1 90 0 1
refdes=R4
T 51200 46200 5 10 1 1 90 0 1
value=8k2
T 50300 45900 5 10 0 0 90 0 1
symversion=0.1
}
C 50600 45700 1 90 0 resistor-2.sym
{
T 50250 46100 5 10 0 0 90 0 1
device=RESISTOR
T 50300 45900 5 10 1 1 90 0 1
refdes=R3
T 50300 46200 5 10 1 1 90 0 1
value=8k2
T 49900 45900 5 10 0 0 90 0 1
symversion=0.1
}
N 50500 45700 50500 45300 4
N 50900 45700 50900 45300 4
