v 20220529 2
C 40000 40000 0 0 0 title-B.sym
C 41900 43700 1 0 0 connector6-1.sym
{
T 43700 45500 5 10 0 0 0 0 1
device=CONNECTOR_6
T 41900 45700 5 10 1 1 0 0 1
refdes=RJ12-P1port
T 42500 45200 5 10 1 1 0 0 1
pinlabel=4.9—5.5V
T 42900 43700 5 10 1 1 0 0 1
pinlabel=GND
T 42800 44600 5 10 1 1 0 0 1
pinlabel=DGND
T 42800 44900 5 10 1 1 0 0 1
pinlabel=DREQ
T 42800 44000 5 10 1 1 0 0 1
pinlabel=/DATA
T 43000 44300 5 10 1 1 0 0 1
pinlabel=N/C
}
C 54700 44300 1 0 1 connector4-1.sym
{
T 52900 45200 5 10 0 0 0 6 1
device=CONNECTOR_4
T 54700 45700 5 10 1 1 0 6 1
refdes=RS232-RS485
T 53300 45200 5 10 1 1 0 0 1
pinlabel=Vcc,3v3
T 53300 44900 5 10 1 1 0 0 1
pinlabel=TxD
T 53300 44600 5 10 1 1 0 0 1
pinlabel=RxD
T 53300 44300 5 10 1 1 0 0 1
pinlabel=GND
}
C 45100 44100 1 0 0 resistor-2.sym
{
T 45500 44450 5 10 0 0 0 0 1
device=RESISTOR
T 45200 44400 5 10 1 1 0 0 1
refdes=R1
T 45500 44400 5 10 1 1 0 0 1
value=82kΩ
T 45300 44800 5 10 0 0 0 0 1
symversion=0.1
}
N 43600 44200 45100 44200 4
N 43600 43900 43900 43900 4
N 43900 42500 53000 42500 4
N 45900 49300 45900 45400 4
N 46300 49300 46300 45400 4
N 46300 45400 53000 45400 4
N 46700 44800 46700 49300 4
N 46700 45100 43600 45100 4
N 48300 49300 48300 43400 4
N 43600 44800 43900 44800 4
N 43900 44800 43900 42500 4
N 50700 49300 50700 42500 4
N 53000 44500 50700 44500 4
N 53000 44800 49100 44800 4
N 49100 44800 49100 49300 4
N 53000 45100 49500 45100 4
N 49500 45100 49500 49300 4
N 43600 45400 45900 45400 4
N 48700 49300 48700 43100 4
N 48700 43100 53000 43100 4
C 54700 42300 1 0 1 connector3-1.sym
{
T 52900 43200 5 10 0 0 0 6 1
device=CONNECTOR_3
T 54700 43400 5 10 1 1 0 6 1
refdes=ARPA2-Console-StereoJack
T 53300 42900 5 10 1 1 0 0 1
pinlabel=T=TxD
T 53300 42600 5 10 1 1 0 0 1
pinlabel=R=RxD
T 53300 42300 5 10 1 1 0 0 1
pinlabel=S=GND
}
N 47100 42800 53000 42800 4
N 47100 42800 47100 49300 4
C 44500 43800 1 270 0 capacitor-4.sym
{
T 45600 43600 5 10 0 0 270 0 1
device=POLARIZED_CAPACITOR
T 44500 43700 5 10 1 1 180 0 1
refdes=C1
T 45200 43600 5 10 0 0 270 0 1
symversion=0.2
T 44600 43200 5 10 1 1 180 0 1
value=1μF
}
N 44700 42900 44700 42500 4
N 44700 43800 44700 45400 4
C 41900 46600 1 0 0 connector4-1.sym
{
T 43700 47500 5 10 0 0 0 0 1
device=CONNECTOR_4
T 41900 48000 5 10 1 1 0 0 1
refdes=GY39-Sensor-Front
T 43300 47500 5 10 1 1 0 6 1
pinlabel=~5v=RD
T 43300 46600 5 10 1 1 0 6 1
pinlabel=GND=ZW
T 43300 47200 5 10 1 1 0 6 1
pinlabel=RxD=GN
T 43300 46900 5 10 1 1 0 6 1
pinlabel=TxD=GL
}
N 43600 47700 45900 47700 4
N 43600 47400 47500 47400 4
N 47500 47400 47500 49300 4
N 43600 47100 47900 47100 4
N 47900 47100 47900 49300 4
N 43600 46800 50700 46800 4
C 46000 44800 1 180 1 BC557-1.sym
{
T 47000 44000 5 8 0 0 180 6 1
device=BC557
T 46200 44700 5 10 1 1 180 6 1
refdes=Q1
T 47000 44300 5 8 0 0 180 6 1
value=BC557
T 47000 43900 5 8 0 0 180 6 1
footprint=TO92
T 47000 43800 5 10 0 0 180 6 1
symversion=1.0
}
N 48300 43400 46700 43400 4
T 50500 40900 9 10 1 0 0 0 1
Connect P1-port and GY-39 sensors to Modbus via STM32F103
C 51100 49300 1 90 0 connector13-2.sym
{
T 47300 50300 5 10 1 1 180 6 1
refdes=STM32F103C8T6-devboard
T 45450 49600 5 10 0 0 90 0 1
device=CONNECTOR_13
T 45250 49600 5 10 0 0 90 0 1
footprint=SIP13N
T 46100 48500 5 10 1 1 90 0 1
pinlabel=Vin,5
T 46500 48500 5 10 1 1 90 0 1
pinlabel=Vcc,3V3
T 46900 48500 5 10 1 1 90 0 1
pinlabel=GPO,DREQ
T 47300 48500 5 10 1 1 90 0 1
pinlabel=GPI,CONS
T 50100 48500 5 10 1 1 90 0 1
pinlabel=SER1B_RX
T 50500 48500 5 10 1 1 90 0 1
pinlabel=SER1B_TX
T 48100 48500 5 10 1 1 90 0 1
pinlabel=SER1A_TX
T 48500 48500 5 10 1 1 90 0 1
pinlabel=SER3_RX
T 48900 48500 5 10 1 1 90 0 1
pinlabel=SER3_TX
T 49300 48500 5 10 1 1 90 0 1
pinlabel=SER2_RX
T 49700 48500 5 10 1 1 90 0 1
pinlabel=SER2_TX
T 50900 48500 5 10 1 1 90 0 1
pinlabel=GND
T 47700 48500 5 10 1 1 90 0 1
pinlabel=SER1A_RX
}
C 54700 46600 1 0 1 connector4-1.sym
{
T 52900 47500 5 10 0 0 0 6 1
device=CONNECTOR_4
T 54700 48000 5 10 1 1 0 6 1
refdes=GY39-Sensor-Back
T 53300 47500 5 10 1 1 0 0 1
pinlabel=RD=~5v
T 53300 46600 5 10 1 1 0 0 1
pinlabel=ZW=GND
T 53300 47200 5 10 1 1 0 0 1
pinlabel=GN=RxD
T 53300 46900 5 10 1 1 0 0 1
pinlabel=GL=TxD
}
N 53000 46800 50700 46800 4
N 53000 47700 45900 47700 4
N 53000 47100 50300 47100 4
N 50300 47100 50300 49300 4
N 53000 47400 49900 47400 4
N 49900 47400 49900 49300 4
C 46800 42500 1 90 0 resistor-2.sym
{
T 46450 42900 5 10 0 0 90 0 1
device=RESISTOR
T 46500 42600 5 10 1 1 90 0 1
refdes=R2
T 46500 42900 5 10 1 1 90 0 1
value=82kΩ
T 46100 42700 5 10 0 0 90 0 1
symversion=0.1
}
N 46700 43400 46700 43600 4
T 41900 48500 9 10 1 0 0 0 4
Or have a bus with selectors:
- This would be the even side
- Select a module with SELn signals
- This side uses even n in SELn
T 52300 48500 9 10 1 0 0 0 4
Or have a bus with selectors:
- This would be the odd side
- Select a module with SELn signals
- This side uses odd n in SELn
