v 20220529 2
C 40000 40000 0 0 0 title-B.sym
N 44100 47300 44100 46400 4
N 44100 46400 46500 46400 4
N 43800 45600 43800 47300 4
C 44300 49000 1 90 1 connector8-1.sym
{
T 41100 48900 5 10 0 0 90 6 1
device=CONNECTOR_8
T 41800 49400 5 10 1 1 180 6 1
refdes=STM32F103C8T6-sensorbus-GY39
T 42200 47600 5 10 1 1 90 0 1
pinlabel=Vcc,~5V
T 42500 47600 5 10 1 1 90 0 1
pinlabel=GND
T 44000 47600 5 10 1 1 90 0 1
pinlabel=SELeven
T 44300 47600 5 10 1 1 90 0 1
pinlabel=SELodd
T 42800 47600 5 10 1 1 90 0 1
pinlabel=TXeven
T 43100 47600 5 10 1 1 90 0 1
pinlabel=RXeven
T 43400 47600 5 10 1 1 90 0 1
pinlabel=TXodd
T 43700 47600 5 10 1 1 90 0 1
pinlabel=RXodd
}
N 42600 44000 42600 47300 4
N 42900 44400 42900 47300 4
N 43200 44800 43200 47300 4
N 43500 45200 43500 47300 4
N 42300 47000 48900 47000 4
N 42300 43600 42300 47300 4
N 42000 42700 42000 47300 4
N 43800 45600 44100 45600 4
N 46500 45600 46500 46400 4
N 46200 45600 46500 45600 4
N 46200 46000 46500 46000 4
C 50900 45300 1 0 1 connector4-1.sym
{
T 49100 46200 5 10 0 0 0 6 1
device=CONNECTOR_4
T 50900 46700 5 10 1 1 0 6 1
refdes=GY39-Sensor-ModBack
T 49500 46200 5 10 1 1 0 0 1
pinlabel=RD=~5V
T 49500 45300 5 10 1 1 0 0 1
pinlabel=ZW=GND
T 49500 45900 5 10 1 1 0 0 1
pinlabel=GN=RxD
T 49500 45600 5 10 1 1 0 0 1
pinlabel=GL=TxD
}
C 50900 42600 1 0 1 connector4-1.sym
{
T 49100 43500 5 10 0 0 0 6 1
device=CONNECTOR_4
T 50900 44000 5 10 1 1 0 6 1
refdes=GY39-Sensor-ModFront
T 49500 43500 5 10 1 1 0 0 1
pinlabel=RD=~5V
T 49500 42600 5 10 1 1 0 0 1
pinlabel=ZW=GND
T 49500 43200 5 10 1 1 0 0 1
pinlabel=GN=RxD
T 49500 42900 5 10 1 1 0 0 1
pinlabel=GL=TxD
}
N 43800 46000 44100 46000 4
N 42000 46700 48600 46700 4
N 48600 46700 48600 43700 4
N 48600 43700 49200 43700 4
N 48900 47000 48900 42800 4
N 49200 45500 48900 45500 4
N 44100 45200 43500 45200 4
N 44100 44800 43200 44800 4
N 42900 44400 44100 44400 4
N 42600 44000 44100 44000 4
N 46200 45200 46800 45200 4
N 46800 45200 46800 46100 4
N 46800 46100 49200 46100 4
N 46200 44800 47400 44800 4
N 47100 45800 49200 45800 4
N 46200 44400 47100 44400 4
N 47100 43400 49200 43400 4
N 46800 43100 49200 43100 4
N 46800 43100 46800 44000 4
N 48900 42800 49200 42800 4
N 47100 43400 47100 44400 4
N 46200 44000 47400 44000 4
C 47400 44700 1 0 0 resistor-2.sym
{
T 47800 45050 5 10 0 0 0 0 1
device=RESISTOR
T 47500 45000 5 10 1 1 0 0 1
refdes=R1
T 47600 45200 5 10 0 1 0 0 1
footprint=ACY500.fp
T 47900 45000 5 10 1 1 0 0 1
value=82k
T 47600 45400 5 10 0 0 0 0 1
symversion=0.1
}
C 47400 43900 1 0 0 resistor-2.sym
{
T 47800 44250 5 10 0 0 0 0 1
device=RESISTOR
T 47500 44200 5 10 1 1 0 0 1
refdes=R2
T 47600 44400 5 10 0 1 0 0 1
footprint=ACY500.fp
T 47900 44200 5 10 1 1 0 0 1
value=82k
T 47600 44600 5 10 0 0 0 0 1
symversion=0.1
}
N 48300 44800 48600 44800 4
T 50300 40900 9 10 1 0 0 0 1
P1 Port via Modbus — bus extension module for 2/16 GY-39 sensors
T 45000 47600 9 10 1 0 0 0 6
SELeven = unique SELn with n even
TXeven = SER1A_TX
RXeven = SER1A_RX
SELodd = unique SELn with n odd
TXodd = SER1B_TX
TXeven = SER1B_RX
N 47100 45800 47100 44800 4
N 48300 44000 48600 44000 4
N 49200 46400 48600 46400 4
N 42300 43600 43500 43600 4
N 42000 42700 44100 42700 4
C 43100 42700 1 90 0 capacitor-1.sym
{
T 42400 42900 5 10 0 0 90 0 1
device=CAPACITOR
T 42800 43500 5 10 1 1 180 0 1
refdes=C1
T 42200 42900 5 10 0 0 90 0 1
symversion=0.2
T 42400 42900 5 10 0 1 90 0 1
footprint=RCY100.fp
T 42900 43000 5 10 1 1 180 0 1
value=10nF
}
N 43500 43600 43500 43000 4
N 43500 43000 44100 43000 4
T 44200 42700 9 10 1 0 0 0 3
Not shown on 4066 switches:
Vss = GND
Vdd = Vcc,~5V
T 42000 41500 9 10 1 0 0 0 3
There are more options to use one 4066 for two GY-39 sensors.
- The two sensors in one module may both be even, or both be odd.
- With suitable firmware, connect TXeven=TXodd and RXeven=RXodd.
C 44100 46100 1 180 1 4066-1.sym
{
T 44400 43550 5 10 0 0 180 6 1
device=4066
T 44400 43350 5 10 0 0 180 6 1
footprint=DIP14
}
